<?xml version="1.0" ?>
<sdf version="1.4">
    <world name="kitchen_world">
	<gui>
	  <camera name="kitchen_camera">
	    <pose>-2. 0 2 0 0.4 0</pose>
	  </camera>
	</gui>
        <scene>
            <ambient>0.5 0.5 0.5 1</ambient>
            <background>0.5 0.5 0.5 1</background>
            <shadows>true</shadows>
        </scene>
        <physics type="ode">
            <gravity>0 0 -9.8</gravity>
            <ode>
                <solver>
                    <type>quick</type>
                    <iters>10</iters>
                    <sor>1.3</sor>
                </solver>
                <constraints>
                    <cfm>0.0</cfm>
                    <erp>0.2</erp>
                    <contact_max_correcting_vel>100.0</contact_max_correcting_vel>
                    <contact_surface_layer>0.001</contact_surface_layer>
                </constraints>
            </ode>
            <real_time_update_rate>1000.0</real_time_update_rate>
            <max_step_size>0.001</max_step_size>
           <max_contacts>20</max_contacts>
        </physics>
        <!-- Ground Plane -->
        <model name="plane1_model">
            <link name="body">
                <collision name="geom_1">
                    <geometry>
                        <plane>
                            <normal>0 0 1</normal>
                        </plane>
                    </geometry>
                    <surface>
                        <friction>
                            <ode>
                                <mu>10.0</mu>
                                <mu2>10.0</mu2>
                                <fdir1>0 0 0</fdir1>
                                <slip1>0</slip1>
                                <slip2>0</slip2>
                            </ode>
                        </friction>
                        <bounce>
                            <restitution_coefficient>0.0</restitution_coefficient>
                            <threshold>1000000.0</threshold>
                        </bounce>
                        <contact>
                            <ode>
                                <soft_cfm>0</soft_cfm>
                                <soft_erp>0.2</soft_erp>
                                <kp>1e10</kp>
                                <kd>1</kd>
                                <max_vel>100.0</max_vel>
                                <min_depth>0.0001</min_depth>
                            </ode>
                        </contact>
                    </surface>
                </collision>
                <visual name="visual_1">
                    <geometry>
                        <plane>
                            <normal>0 0 1</normal>
                            <size>20 20</size>
                        </plane>
                    </geometry>
                    <material>
                        <script>
                            <uri>file://media/materials/scripts/gazebo.material</uri>
                            <name>Gazebo/Grey</name>
                        </script>
                    </material>
                    <cast_shadows>true</cast_shadows>
                </visual>
            </link>
            <static>true</static>
        </model>
        <light type="directional" name="my_light">
            <pose>0 10 10 0 0 0</pose>
            <diffuse>.9 .9 .9 1</diffuse>
            <specular>.1 .1 .1 1</specular>
            <attenuation>
                <range>10</range>
            </attenuation>
            <direction>0 0 -1</direction>
            <cast_shadows>true</cast_shadows>
        </light>
        <!--include>
            <uri>model://camera</uri>
            <pose>0.3 0.5 2 0 1.57 0</pose>
        </include-->
        <!--include>
            <uri>model://box_white</uri>
            <pose>0 0 1 0 0 0</pose>
        </include>
        <include>
            <uri>model://box_green</uri>
            <pose>0 0 1 0 0 0</pose>
        </include-->
        <include>
            <uri>model://hit_hand</uri>
            <pose>0 0 1 0 0 0</pose>
        </include>
        <include>
            <uri>model://ias_kitchen</uri>
            <pose>0 0 0 0 0 0</pose>
        </include>
        <include>
            <uri>model://spatula_joint</uri>
            <pose>0.6 0.15 1.0 0 0 0</pose>
        </include>
        <!--include>
            <uri>model://mug</uri>
            <pose>0.2 0.1 0.90 0 0 3.14159</pose>
        </include-->
        <include>
            <uri>model://fluid_mug</uri>
            <pose>0.2 0.1 0.90 0.0 0 3.14159</pose>
        </include>
        <!--include>
            <uri>model://spoon</uri>
            <pose>0.5 -0.1 1.0 0 0 0</pose>
        </include-->
        <include>
            <uri>model://pancake_maker</uri>
            <pose>0.3 0.4 0.89 0 0 0</pose>
        </include>

        <!--include>
            <uri>model://bottle</uri>
            <pose>0.3 0.0 0.95 0 0 3.14159</pose>
        </include-->
        <!--plugin name="factory" filename="libfactory.so"/-->
        
        <!--
	~HARD bodies cfm=erp=0, kp=kd=1000000000000
	~SOFT bodies cfm=erp=1, kp=kd=1
	<inertia> for spheres: (2*m*r^2)/5
	-->
     	<!--plugin name="factory_liquid" filename="libfactory_liquid.so">
		<init_pos>0.2 0.1 1.0</init_pos>
		<nr_spheres>40</nr_spheres>
		<mass>0.001</mass>
		<radius>0.005</radius>
		<mu>0.85</mu>			
		<mu2>0.85</mu2>
		<slip1>1</slip1>			
		<slip2>1</slip2>
		<cfm>0.58</cfm>			
		<erp>0.58</erp>
		<kp>100.0</kp>			
		<kd>1.0</kd>
		<bounce>0.0</bounce>
		<inertia>0.000102</inertia>
	</plugin-->
    	<!-- 
	<j_cfm> Constraint force mixing used when not at a stop 
	<limit_cfm> Constraint force mixing parameter used by the joint stop
	<limit_erp> Error reduction parameter used by the joint stop
	<c_cfm> <c_erp> Contact parameters	
	-->
        <!--plugin name="factory_pancake" filename="libfactory_pancake.so">
		<init_pos>0.3 0.4 0.98</init_pos>
		<pancake_radius>0.0335</pancake_radius>
		<sphere_radius>0.007</sphere_radius>
		<mass>0.003</mass>
		<limitStop>0.9</limitStop>		
		<mu>0.95</mu>			
		<mu2>0.95</mu2>
		<slip1>0</slip1>			
		<slip2>0</slip2>
		<c_cfm>0.10</c_cfm>			
		<c_erp>0.10</c_erp>
		<kp>100000.0</kp>			
		<kd>100000.0</kd>
		<fudge_factor>0.8</fudge_factor>			
		<j_cfm>0.90</j_cfm>
		<bounce>0.0</bounce>			
		<limit_cfm>0.90</limit_cfm>
		<limit_erp>0.90</limit_erp>
		<inertia>0.00002</inertia>
	</plugin-->

    	<!-- reducing the error reductions parameter (erp) allows joint to exceed the limit -->
	<!-- for <type> 'hydra' or 'threegear' -->
    	<!--plugin name='dynamic_joint_plugin' filename='libdynamic_joint_plugin.so'>
		<type>hydra</type>
	    	<stop_cfm>0.0</stop_cfm>
      		<stop_erp>0.0</stop_erp>
		<fudge_factor>1.0</fudge_factor>
		<cfm>1.0</cfm>
		<erp>0.2</erp>
		<limit_stop>0.35</limit_stop>
		<pancake_inertia>0.000001</pancake_inertia>
	</plugin-->

	<!--plugin name='stereo_rendering_plugin' filename='libstereo_rendering_plugin.so'></plugin-->

    </world>
</sdf>
